{
  "tests" : [ {
    "name" : "rezervacija.gspec",
    "startedAt" : 1573653846649,
    "endedAt" : 1573653863156,
    "failed" : false,
    "statistic" : {
      "passed" : 51,
      "errors" : 0,
      "warnings" : 0,
      "total" : 51
    },
    "testId" : "1-rezervacija.gspec",
    "duration" : 16507,
    "failed" : false
  } ]
}