{
  "tests" : [ {
    "name" : "unos.gspec",
    "startedAt" : 1573657587156,
    "endedAt" : 1573657605610,
    "failed" : false,
    "statistic" : {
      "passed" : 31,
      "errors" : 0,
      "warnings" : 0,
      "total" : 31
    },
    "testId" : "1-unos.gspec",
    "duration" : 18454,
    "failed" : false
  } ]
}