{
  "tests" : [ {
    "name" : "sale.gspec",
    "startedAt" : 1573657485912,
    "endedAt" : 1573657507685,
    "failed" : false,
    "statistic" : {
      "passed" : 47,
      "errors" : 0,
      "warnings" : 0,
      "total" : 47
    },
    "testId" : "1-sale.gspec",
    "duration" : 21773,
    "failed" : false
  } ]
}