{
  "tests" : [ {
    "name" : "mobileSale.gspec",
    "startedAt" : 1573658156146,
    "endedAt" : 1573658167479,
    "failed" : false,
    "statistic" : {
      "passed" : 6,
      "errors" : 0,
      "warnings" : 0,
      "total" : 6
    },
    "testId" : "1-mobilesale.gspec",
    "duration" : 11333,
    "failed" : false
  } ]
}